…
As an example, on row 9, a customer with user id `79431` orders
`Grated Pecorino Romano Cheese`, one of his/her eight orders on Saturday
at 6 p.m. He/she has never ordered this product before.

### How many aisles are there, and which aisles are the most items ordered from?

``` r
instacart |>
  group_by(aisle) |>
  summarize(n_obs = n()) |>
  arrange(desc(n_obs))
```

    ## # A tibble: 134 × 2
    ##    aisle                          n_obs
    ##    <chr>                          <int>
    ##  1 fresh vegetables              150609
    ##  2 fresh fruits                  150473
    ##  3 packaged vegetables fruits     78493
    ##  4 yogurt                         55240
    ##  5 packaged cheese                41699
    ##  6 water seltzer sparkling water  36617
    ##  7 milk                           32644
    ##  8 chips pretzels                 31269
    ##  9 soy lactosefree                26240
    ## 10 bread                          23635
    ## # ℹ 124 more rows
…
### Make a table showing the three most popular items in each of the aisles “baking ingredients”, “dog food care”, and “packaged vegetables fruits”. Include the number of times each item is ordered in your table.

``` r
instacart |>   
  filter(aisle %in% 
         c("baking ingrediens", "dog food care", "packaged vegetables fruits")) |>
  group_by(aisle, product_name) |>
  summarize(n_obs=n())
```

    ## `summarise()` has grouped output by 'aisle'. You can override using the
    ## `.groups` argument.

    ## # A tibble: 921 × 3
    ## # Groups:   aisle [2]
    ##    aisle         product_name                                              n_obs
    ##    <chr>         <chr>                                                     <int>
    ##  1 dog food care "174 ; Dentastix&#174 ; Large"                                8
    ##  2 dog food care "5 Meaty Flavors Variety Dog Snacks"                          6
    ##  3 dog food care "6\\\" Free Ranger Bully Stix"                                6
    ##  4 dog food care "Adult Chicken & Rice Dry Dog Food"                          12
    ##  5 dog food care "Adult Complete Nutrition Dry Food for Dogs Bonus"            1
    ##  6 dog food care "Adult Dog Food"                                              7
    ##  7 dog food care "Adult Dog Formula Dog Food"                                  2
    ##  8 dog food care "Adult Grain-Free & Poultry-Free Dog Food"                   11
    ##  9 dog food care "Adult Grain-Free Duck, Sweet Potatoes & Whole Peas Entr…     2
    ## 10 dog food care "Adult Health Small Breed Formula Dry Dog Food"              13
    ## # ℹ 911 more rows
…
## Problem 2

Do some data cleaning for the `BRFSS` data:

``` r
brfss_smart2010 |>
  filter(
    Topic == "Overall Health",
    Response %in% c("Excellent", "Very Good", "Good", "Fair", "Poor")) |>
  mutate(
    Response == forcats::fct_relevel(Response, c("Poor", "Fair", "Good", "Very Good", "Excellent")))
```

    ## # A tibble: 8,500 × 24
    ##     Year Locationabbr Locationdesc     Class Topic Question Response Sample_Size
    ##    <int> <chr>        <chr>            <chr> <chr> <chr>    <chr>          <int>
    ##  1  2010 AL           AL - Jefferson … Heal… Over… How is … Excelle…          94
    ##  2  2010 AL           AL - Jefferson … Heal… Over… How is … Good             208
    ##  3  2010 AL           AL - Jefferson … Heal… Over… How is … Fair             107
    ##  4  2010 AL           AL - Jefferson … Heal… Over… How is … Poor              45
    ##  5  2010 AL           AL - Mobile Cou… Heal… Over… How is … Excelle…          91
    ##  6  2010 AL           AL - Mobile Cou… Heal… Over… How is … Good             224
    ##  7  2010 AL           AL - Mobile Cou… Heal… Over… How is … Fair             120
    ##  8  2010 AL           AL - Mobile Cou… Heal… Over… How is … Poor              66
    ##  9  2010 AL           AL - Tuscaloosa… Heal… Over… How is … Excelle…          58
    ## 10  2010 AL           AL - Tuscaloosa… Heal… Over… How is … Good             171
    ## # ℹ 8,490 more rows
    ## # ℹ 16 more variables: Data_value <dbl>, Confidence_limit_Low <dbl>,
    ## #   Confidence_limit_High <dbl>, Display_order <int>, Data_value_unit <chr>,
    ## #   Data_value_type <chr>, Data_Value_Footnote_Symbol <chr>,
    ## #   Data_Value_Footnote <chr>, DataSource <chr>, ClassId <chr>, TopicId <chr>,
    ## #   LocationID <chr>, QuestionID <chr>, RESPID <chr>, GeoLocation <chr>,
    ## #   `==...` <lgl>
…
